# 3ds Max Wavefront OBJ Exporter v0.97b - (c)2007 guruware
# File Created: 01.05.2013 11:23:26

newmtl 23___Default
	Ns 9.999999
	Ni 1.500000
	d 1.000000
	Tr 0.000000
	Tf 1.000000 1.000000 1.000000 
	illum 2
	Ka 0.588235 0.588235 0.588235
	Kd 0.588235 0.588235 0.588235
	Ks 0.441000 0.441000 0.441000
	Ke 0.000000 0.000000 0.000000
	map_Kd maps\button.png
	map_Kn maps\metal_n.jpg
	map_Ks maps\metal_s.jpg